<?xml version="1.0" encoding="utf-8"?>
<!-- Generator: Adobe Illustrator 18.1.1, SVG Export Plug-In . SVG Version: 6.00 Build 0)  -->
<svg version="1.1" id="Capa_1" xmlns="http://www.w3.org/2000/svg" xmlns:xlink="http://www.w3.org/1999/xlink" x="0px" y="0px"
	 width="120px" height="24px" viewBox="24 25 120 24" enable-background="new 24 25 120 24" xml:space="preserve">
<g>
	<polygon fill="#444444" points="50.9,25 40.4,35.5 30,25 28.5,26.5 39,36.9 28.5,47.4 30,48.8 40.4,38.4 50.9,48.9 52.4,47.4 
		41.9,36.9 52.4,26.5 	"/>
	<polygon fill="#444444" points="125.7,26.7 127.2,25.3 140,37.1 127.2,49 125.7,47.6 136.9,37.1 	"/>
	<polygon fill="#444444" points="82.8,37.1 94,47.6 92.4,49 79.7,37.1 92.4,25.3 94,26.7 	"/>
</g>
</svg>
