<?xml version="1.0" encoding="utf-8"?>
<!-- Generator: Adobe Illustrator 18.1.1, SVG Export Plug-In . SVG Version: 6.00 Build 0)  -->
<svg version="1.1" xmlns="http://www.w3.org/2000/svg" xmlns:xlink="http://www.w3.org/1999/xlink" x="0px" y="0px" width="350px"
	 height="350px" viewBox="0 0 350 350" enable-background="new 0 0 350 350" xml:space="preserve">
<g id="bg">
	<rect width="350" height="350"/>
</g>
<g id="Capa_1">
	<g id="colors">
		<g id="ground_three">
			<path fill="#EBE3B4" d="M0,350v-45c0,0,57.2-3.4,70.1-3.4c12.4,0,40.6,2.9,53.2,3.4c26.1,1,58.5-5.7,84.7-4.5
				c28,1.2,53.1,1.5,81.2,2.9c24.7,1.2,60.8,2.4,60.8,2.4V350H0z"/>
		</g>
		<g id="ground_two">
			<path fill="#E2BF47" d="M350,296.2c0,0-31.8-0.4-66-1.2c-19-0.4-74.9-4.9-110.8-1c-45.5,5-76.3,0.6-98.8,0
				C39.3,293,0,298.5,0,298.5v-49.3c0,0,41.8-0.8,51.3-1.2c41.5-1.7,82.4-5.1,123.9-6.9c50.2-2.1,78.1,2.5,117.1,0.6
				c21.3-1,57.6,0.7,57.6,0.7V296.2z"/>
		</g>
		<g id="ground_one">
			<path fill="#DFB32C" d="M0,179.2c0,0,59.2-5.8,114-7.9c26.3-1,50.3,1,80.7,2c31.9,1.1,48.8,1,80.7,2c32,1,74.7,0.8,74.7,0.8
				l0.1,57.1c0,0-41.5-0.6-68.5,0.1c-17.3,0.4-87.3-2-124.1-0.2c-18.4,0.9-58.2,4.9-110.8,6c-9.5,0.2-46.8,1.8-46.8,1.8V179.2z"/>
		</g>
		<g id="blue_three">
			<path fill="#0584E5" d="M0,115.8c0,0,50.3,0.5,106.6-1c26.8-0.7,37.4,1.9,81.1-2.1c25.9-2.4,53.2-2.7,78.9-0.6
				c25.6,2.1,83.3,5.4,83.3,5.4l-0.1,53.2c0,0-31.9-1.4-83.6-2.4c-27.2-0.5-56.5-1.3-83.7-2c-15.7-0.4-57-3.3-95.3,0
				C24.9,171.8,0,174.4,0,174.4V115.8z"/>
		</g>
		<g id="blue_two">
			<path fill="#3DB7F6" d="M0,108.3v-51c0,0,79.6,1.8,106.1,1.1c53.4-1.4,106.8-2.5,160.3-4c33.9-0.9,83.7,3.2,83.7,3.2v51.6
				c0,0-68.6-4.5-93.8-5.7c-13.3-0.6-67,2.6-80.8,3.5c-30.1,1.8-60.3-0.2-90.4,0.7C70,108.1,0,108.3,0,108.3z"/>
		</g>
		<g id="blue_one">
			<path fill="#52BFF7" d="M350,48.6c0,0-27.5-2.5-91.7-0.7c-72.3,2-142.4,3.5-214.7,2.1C5.3,49.3,0,49.2,0,49.2V0h350V48.6z"/>
		</g>
	</g>
	<g id="colors_copia" display="none">
		<g id="ground_three_copia" display="inline">
			<path fill="#EBE3B4" d="M4.7,342.5c-3.4,0.1-14.3,1.2-15.6-2.6c0,0.4-16.8,6.2-18.2,4.5c0.1-0.7,0.4-1.3,0.9-1.7
				c-1.2,1.7-6,1-6.6-0.2c1.4,2.6-13.1-1.1-13-1.1c-7.8-1.8-15.4,1.8-16.4-9.4c-0.1-1,1.3-4.6,1.4-6c0.5-5.6-0.8-11.5-1-17.2
				c0-1-1-7.9-0.7-8.4c1.7-3,10.9-1.7,14.9-2c26.9-1.5,53.9-2.3,80.8-3.2c12.9-0.4,25.9-1.2,38.8-1.2c12.4,0,24.6,2.9,37.2,3.4
				c26.1,1,51.5-5.7,77.7-4.5c28,1.2,56.1-0.5,84.2,0.9c24.7,1.2,49.3,0.2,73.9,1.4c13.4,0.6,26.6-1.1,40.1-0.2
				c8,0.5,28.7-1.4,34.9,4.4c-2.8,6.5-2.6,16.4-0.9,24.1c1.5,7,4.3,17.2-4.3,22.2c-6,3.5-15.9-0.3-22.3-1.2
				c-10.3-1.4-19.2-0.8-29.4-0.7c-20.4,0.2-40.9-6.6-61.1-5.8c-19.2,0.7-38.1-0.7-57.4-1.5c-10.7-0.4-20.5,1.4-31.1,2.4
				c-10.3,1-19.9-0.6-30.1-0.8c-22.4-0.3-46,1.4-68.3,2.6c-7.3,0.4-14.6,0.6-21.9,0.9c-10.1,0.5-19.7-2.1-29.8-1.8
				c-10.7,0.3-21.9,0.9-32.7,1.8C24.6,341.8,6.7,340.6,4.7,342.5C4.2,342.5,4.9,342.3,4.7,342.5z"/>
		</g>
		<g id="ground_two_copia" display="inline">
			<path fill="#E2BF47" d="M415.2,239.8c-0.9,3.6,0.3,20.1,0.1,27.7c-0.1,4.5,3.7,20.2,1.2,23.6c-3.4,4.6-24.2,0-30.1-0.4
				c-12.6-0.9-24.4-0.5-37-0.1c-43.2,1.5-86.7-1.6-130-1.6c-22.5,0-46-1.6-68.4,0.7c-24.6,2.6-45.9,3.3-70.5,0.4
				c-23.8-2.9-50.1,0.8-74,1.7c-23.1,0.9-48.2-0.9-70.2,5.4c-2.3-8.9,0.7-21.4-0.2-30.9c-0.5-5.8-3.2-18.7,1.6-22.6
				c5.8-4.7,28.4-2.4,35.1-2.1c11.2,0.5,22.3,0.8,33.5,0.4c49-1.7,97.5-2.3,146.4-6.9c46-4.3,92.2,2.5,138.3,0.6
				c25.1-1,49.5-2.8,74.6,1c11.6,1.7,23.4,3.2,34.9,5.5C407.2,243.7,412,247.6,415.2,239.8C415.2,239.5,412.8,245.6,415.2,239.8z"/>
		</g>
		<g id="ground_one_copia" display="inline">
			<path fill="#DFB32C" d="M-63.2,238.4c-1-2.2-1.5-4.6-1.3-7.1c1-0.7,1.8-0.4,2.4,0.8c0.3-0.1,2-9.9,2-9.9c0.4-1-2.2-2.4-1.9-4.3
				c0.2-1.2,2.3-2.3,2.6-4.1c0.3-1.9-1.6-3.6-1.9-5.4c-1.4-10.3-1.8-20.8-0.9-31.8c3.6,5.8,16.3,2.2,21.8,2.1
				c10.2-0.2,20.4-0.6,30.5-1c19.6-0.8,39-3.4,58.7-3.5c20.2-0.1,38.6-4.8,58.8-4.9c21.4-0.1,42.8-0.2,64.1-0.1
				c43.2,0.2,86.4,1.4,129.6,3.1c19.8,0.8,40.9,3.6,60.6,2.1c9.4-0.7,18.7-0.6,28.1-1.2c7.8-0.5,18.9-3.2,26.5-2.2
				c0.3,20.4,0.9,41.1-0.7,61.4c-0.9,11.5-4.7,7.7-14.3,5.9c-11.1-2.1-22.6-3.6-33.8-5.1c-24.5-3.3-47.8-2.8-72.4-1.5
				c-23.4,1.2-46.8-0.1-70.1-0.7c-23.6-0.6-47-1.9-70.5,0.3c-24.8,2.3-49,4.7-73.9,5c-25.5,0.3-50.9,1.2-76.3,2.1
				c-12.8,0.5-25.5-0.8-38.3-0.7C-38.5,237.5-60.8,242.3-63.2,238.4C-63.5,236-62.1,240.2-63.2,238.4z"/>
		</g>
		<g id="blue_three_copia" display="inline">
			<path fill="#0584E5" d="M-62.2,175.2c0.7-8.1-1.7-16.3-1.2-24.5c0.6-9.8-0.8-19.2-0.6-29c0.2-9.2,1.4-7.8,10.8-8
				c9.5-0.2,19.1-0.6,28.7-1.1c35.2-1.6,70.8-1.5,106.2-1.9c36.7-0.4,74.5,2.5,110.8-2.1c35-4.4,72.7-0.7,107.8,1.4
				c34.9,2.1,69.8,3.5,104.7,4.8c9.8,0.4,11.5-0.2,10.7,9.2c-0.7,8.9,1.2,17.4,1.2,26.2c0,4.7,1.3,16.7-2.9,18.5
				c-2.3,1-6.8-0.6-9.4-0.6c-5.2,0-10.4,0.9-15.5,1.3c-35.2,2.5-70.5,0-105.7-1.2c-37.1-1.3-74.3-2-111.4-2.7
				c-21.5-0.4-43-0.4-64.5-0.3c-18.1,0.1-34.9,4.9-52.6,5.5c-20.2,0.7-40.1,1.6-60.3,3c-10.7,0.8-21.5,1.1-32.2,1.3
				C-42.2,175.1-58.9,178.5-62.2,175.2C-61.9,171.4-61.2,176.2-62.2,175.2z"/>
		</g>
		<g id="blue_two_copia" display="inline">
			<path fill="#3DB7F6" d="M-64.3,108.7c-0.3-5.8-0.7-11.7-0.9-17.4c-0.2-6.8-0.6-12.7-1.5-19.7c-1.2-9.4-1.2-10.9,7.5-12.1
				c9.4-1.3,19.2,1.2,28.5,1.8c36.3,2.3,73.9-0.4,110.3-1.1c73.5-1.4,146.9-1.7,220.4-3.8c35.4-1,70.5,1.1,105.9,2.4
				c8.8,0.3,11.1,0.8,10.8,9.5c-0.3,7.9-0.4,16-0.7,23.9c-0.1,2.1,1.5,17.9,0.6,18.6c-4.6,3.7-20.1,0.1-26.3-0.2
				c-34.7-1.6-69.5-3.7-104.2-4.9c-18.3-0.6-36.6-1.3-54.8-1.9c-19.1-0.6-37.3,2.4-56.3,3.2c-41.3,1.7-83-0.2-124.3,0.6
				c-20.6,0.4-41.1,0.6-61.6,0.9c-10,0.2-20,0.8-30,1.2C-45.6,110.1-61.3,112.7-64.3,108.7C-64.4,107.3-63.8,109.3-64.3,108.7z"/>
		</g>
		<g id="blue_one_copia" display="inline">
			<path fill="#52BFF7" d="M417.3,12.3c0,10.4,6.3,38-3,43.4c-3.8,2.2-20.8-0.4-25.5-0.7c-8.3-0.5-16.5-1.4-24.8-1.7
				c-35.2-1-70.4-0.8-105.6-0.2c-72.3,1.2-144.4,4.2-216.7,4.2c-33.7,0-69,3.8-102.3-0.9c-6.3-0.9-5.3,0.5-6.6-6.4
				c-1.2-6.7-1.9-15.2-1.2-22c0.8-9.1,1.7-11.4,9.9-12.7c10.3-1.7,20.8-1.4,31.3-1.6C8.7,13,45,12.2,80.9,15.3c18,1.6,36,0.9,54,0.6
				c16.5-0.3,32.7-3.1,49-3.4c38.4-0.7,76.7-4.2,115.1-3.4c18.5,0.4,37,2.1,55.5,2.6c10.7,0.3,21.5,0.2,32.2,0.2
				C394.9,11.9,410.3,8.7,417.3,12.3C417.3,18.3,416.1,11.7,417.3,12.3z"/>
		</g>
	</g>
	<g id="lines" display="none">
		<path display="inline" d="M417.3,12.5c-6.2,4.8-22,1-29,1.1c-10.4,0.1-20.7,0.1-31.1-0.3c-21.3-0.8-42.6-3.5-63.9-3.6
			c-40.7-0.1-82.2,2.2-122.6,6.6c-19.2,2.1-38.1,3-57.4,3c-19.4,0-38.3-3-57.6-2.9c-20.4,0-40.7-1.6-61.1-1.1
			c-10.4,0.2-20.9,0.4-31.3,0.6c-9.4,0.2-19.3,3.4-28.5,2.3c3-17.5,36.9-10.5,48.2-11.1C5.5,6,28.1,6.7,50.7,7.4
			c20.8,0.6,40.8,3.9,61.6,3.8c21.1,0,41.5-2.7,62.5-4.2c43.8-3.1,88.1-5.4,132-3.8c22.5,0.9,44.7,2.6,67.2,1.9
			c9.8-0.3,19.7-0.2,29.5-0.2C409.6,5,417.7,1.2,417.3,12.5C416.3,13.2,417.3,12,417.3,12.5z"/>
		<path display="inline" d="M-66.6,55.4c14.2-5.4,28.9,1,43.1,2c15.8,1.1,32.1-1.4,47.9-1.5c34.9-0.3,69.7-1.3,104.6-1.4
			c64.2,0,128.4-7.1,192.6-6.2c29.5,0.4,59.2,1.8,88.6,4.3c3.6,0.3,7.5-2.1,7.1,5.2c-0.4,7.4-2.4,2.5-5.6,3.4
			c-7,2-17.4,0.1-24.7-0.7c-15.2-1.6-30.3-2.9-45.6-3.4c-63.9-2.2-127.7,5.6-191.5,4.9c-38.6-0.4-77.2,0.6-115.8,1.6
			c-18.6,0.5-37.5,1.8-56.1,1.6c-15.3-0.2-29.7-4.4-45.2-2C-67,60.8-66.8,58.1-66.6,55.4C-58.1,52.2-66.8,58.1-66.6,55.4z"/>
		<path display="inline" d="M-63.1,107.7c9.5-2.6,21.2-0.2,31.1-0.7c9.6-0.5,19.4-2,29-1.5c19.5,1.1,39-0.6,58.5-1.2
			c41.7-1.1,85.1,4.3,126.6-2c38.4-5.9,77.2-4.5,115.8-0.4c21.8,2.3,43.6,4.2,65.4,5.7c10.8,0.8,21.7,1.1,32.5,1.6
			c4.5,0.2,9,0.4,13.6,0.7c6.6,0.5,7.2-0.7,7.5,9.6c-42.1-2.5-84.1-6.5-126.2-9c-20-1.2-40-2.7-60-3.2c-21.1-0.6-41.5,4.6-62.5,4.8
			c-42.7,0.3-85.2,0.2-127.9,1.6c-21,0.7-42.1-0.3-63,1.2c-9.8,0.7-20.3,2.8-30.1,2C-58.1,116.5-65.3,118.1-63.1,107.7
			C-61.7,107.3-64.7,115.2-63.1,107.7z"/>
		<path display="inline" d="M-62.2,176.6c15.7-2.9,31.8-2.5,47.6-3.3c17.4-0.8,34.6-4,51.9-4.7c30.6-1.3,59.9-8.3,90.8-8
			c69,0.5,138,2.8,206.9,7.1c12.4,0.8,24.3,0.5,36.6,0.1c11.7-0.4,29.2-7.8,40.4-2.4c9,4.3,3.3,8.2-3.3,8.4
			c-6.1,0.2-12.1,0.9-18.1,1.4c-16.1,1.4-32.3,2.5-48.3,1.4c-68.7-4.8-137.6-5.9-206.4-6.2c-17.7-0.1-34.9-2.3-55.8,1.6
			c-7.4,1.4-12.2,4.5-20,4.7c-9.6,0.2-19.3,0-28.9,0.4c-18.9,0.8-37.8,4.4-56.7,5.4c-8,0.4-16.1,0.9-24.1,1.5
			C-56.8,184.5-62.1,188.4-62.2,176.6C-50.3,174.4-62.2,177.3-62.2,176.6z"/>
		<path display="inline" d="M-62.4,246c-0.4-13.7,24.1-10.5,31.9-10.3c15.7,0.2,31,1.5,46.7,0.6c33.5-1.9,67.7,1.1,101-3.3
			c33.7-4.5,66.1-6.6,100-5.6c18,0.6,36,1.6,54,1.9c16.9,0.2,33.5-3,50.3-3.4c14.2-0.3,29.3,1.3,43.3,3.8
			c13.7,2.5,33.3,2.8,45.9,10.1c1.6,1,9,3.9,3.7,7.8c-3.4,2.5-11.4-2.3-14.8-3.2c-14.4-3.6-29.6-6.7-44.2-8.5
			c-32.2-3.9-64,2-96.2,0.4c-33.4-1.7-67-3.6-100.3-1c-16.3,1.3-32.6,5-49,5.9c-19.1,1-38.2,0.8-57.3,1.1
			C14.2,243.2-24.2,245-62.4,246C-62.4,245.5-60.8,246-62.4,246z"/>
		<path display="inline" d="M412.5,299.8c-31.6-4-62.7-2.8-94.3-4.3c-30.5-1.5-61.2-1.6-91.8-1.9c-32.1-0.4-63.2,0.5-95,5.1
			c-17.1,2.5-33.2,0.4-50.1-2.7c-16.5-3.1-34.2-0.2-50.8,0.6c-15,0.8-29.9,1.6-44.9,2.1c-6.2,0.2-46.5,7.7-49.1,2.1
			c-5.2-11.2,22.3-8.9,26.4-9.2c17.5-1.3,35-1.6,52.5-2.5c18.6-1,37.3-2.6,55.9-2.3c17.4,0.2,34.3,6.2,51.9,4.7
			c15.5-1.3,30.3-5.8,45.9-5.9c16.3-0.1,32.7-0.5,49-0.5c36.6,0,73.2,1.9,109.8,2.1c16.1,0.1,32.3-1.1,48.4,0
			c9.2,0.6,18.4,1.7,27.6,2.9c-0.1,0,10.1,0.4,10.7,1.4C416.9,295,416.9,301,412.5,299.8C403.1,298.6,413.7,300.1,412.5,299.8z"/>
	</g>
</g>
</svg>
